RFP-ANP
…
Riesgos hidro-meteorológicos

Ecosistémicos

Incendios forestales

# A tibble: 2 × 3
  total_rg     n report        
     <dbl> <int> <chr>         
1        0    54 "Sin reporte "
2        1   142 "Con reporte" 

Factores de presión antrópicos

# A tibble: 196 × 9
   id_anp   nombre_anp                  cat_manejo region Contaminación_sólido…¹
   <chr>    <chr>                       <chr>      <chr>  <chr>                 
 1 00101100 El Vizcaíno                 RB         Penín… "Todo el año"         
 2 00103045 Sierra de San Pedro Mártir  PN         Penín… ""                    
 3 00103052 Constitución de 1857        PN         Penín… "Abr"                 
 4 00103183 Revillagigedo               PN         Penín… ""                    
 5 00103190 Loreto II                   PN         Penín… "Todo el año"         
 6 00103192 San Quintín                 PN         Penín… "Todo el año"         
 7 00107055 Cabo San Lucas              APFF       Penín… "Todo el año"         
 8 00107063 Valle de los Cirios         APFF       Penín… "Todo el año"         
 9 00107177 Balandra                    APFF       Penín… "Todo el año"         
10 00201110 Alto Golfo de California y… RB         Noroe… "Todo el año"         
# ℹ 186 more rows
# ℹ abbreviated name: ¹​`Contaminación_sólidos-líquidos`
# ℹ 4 more variables: `Contaminación cuerpos de agua` <chr>,
#   `Derrame hidrocarburos` <chr>, `Uso plaguicidas_agroquímicos` <chr>,
#   `Vertederos al aire libre` <chr>
…
